%YAML 1.1
%TAG !u! tag:unity3d.com,2011:
--- !u!1001 &100100000
Prefab:
  m_ObjectHideFlags: 1
  serializedVersion: 2
  m_Modification:
    m_TransformParent: {fileID: 0}
    m_Modifications: []
    m_RemovedComponents: []
  m_SourcePrefab: {fileID: 0}
  m_RootGameObject: {fileID: 1232342421509704}
  m_IsPrefabAsset: 1
--- !u!1 &1232342421509704
GameObject:
  m_ObjectHideFlags: 0
  m_CorrespondingSourceObject: {fileID: 0}
  m_PrefabInternal: {fileID: 100100000}
  serializedVersion: 6
  m_Component:
  - component: {fileID: 4309137537617660}
  - component: {fileID: 114208596438884164}
  m_Layer: 0
  m_Name: TitleScreenMenuCellProperties
  m_TagString: Untagged
  m_Icon: {fileID: 0}
  m_NavMeshLayer: 0
  m_StaticEditorFlags: 0
  m_IsActive: 1
--- !u!4 &4309137537617660
Transform:
  m_ObjectHideFlags: 1
  m_CorrespondingSourceObject: {fileID: 0}
  m_PrefabInternal: {fileID: 100100000}
  m_GameObject: {fileID: 1232342421509704}
  m_LocalRotation: {x: 0, y: 0, z: 0, w: 1}
  m_LocalPosition: {x: 0, y: 0, z: 0}
  m_LocalScale: {x: 1, y: 1, z: 1}
  m_Children: []
  m_Father: {fileID: 0}
  m_RootOrder: 0
  m_LocalEulerAnglesHint: {x: 0, y: 0, z: 0}
--- !u!114 &114208596438884164
MonoBehaviour:
  m_ObjectHideFlags: 1
  m_CorrespondingSourceObject: {fileID: 0}
  m_PrefabInternal: {fileID: 100100000}
  m_GameObject: {fileID: 1232342421509704}
  m_Enabled: 1
  m_EditorHideFlags: 0
  m_Script: {fileID: 11500000, guid: 3eafe0439e27773499fcabd52ac94afe, type: 3}
  m_Name: 
  m_EditorClassIdentifier: 
  propertiesList:
  - X: 130
    Y: 67
    layer: 0
    symbol: "\u2554"
    drawColor: {r: 0.4, g: 0.3019608, b: 0, a: 1}
    backgroundDrawColor: {r: 0, g: 0, b: 0, a: 1}
  - X: 131
    Y: 67
    layer: 0
    symbol: "\u2550"
    drawColor: {r: 0.4, g: 0.3019608, b: 0, a: 1}
    backgroundDrawColor: {r: 0, g: 0, b: 0, a: 1}
  - X: 132
    Y: 67
    layer: 0
    symbol: "\u2550"
    drawColor: {r: 0.4, g: 0.3019608, b: 0, a: 1}
    backgroundDrawColor: {r: 0, g: 0, b: 0, a: 1}
  - X: 133
    Y: 67
    layer: 0
    symbol: "\u2550"
    drawColor: {r: 0.4, g: 0.3019608, b: 0, a: 1}
    backgroundDrawColor: {r: 0, g: 0, b: 0, a: 1}
  - X: 134
    Y: 67
    layer: 0
    symbol: "\u2550"
    drawColor: {r: 0.4, g: 0.3019608, b: 0, a: 1}
    backgroundDrawColor: {r: 0, g: 0, b: 0, a: 1}
  - X: 135
    Y: 67
    layer: 0
    symbol: "\u2550"
    drawColor: {r: 0.4, g: 0.3019608, b: 0, a: 1}
    backgroundDrawColor: {r: 0, g: 0, b: 0, a: 1}
  - X: 136
    Y: 67
    layer: 0
    symbol: "\u2550"
    drawColor: {r: 0.4, g: 0.3019608, b: 0, a: 1}
    backgroundDrawColor: {r: 0, g: 0, b: 0, a: 1}
  - X: 137
    Y: 67
    layer: 0
    symbol: "\u2550"
    drawColor: {r: 0.4, g: 0.3019608, b: 0, a: 1}
    backgroundDrawColor: {r: 0, g: 0, b: 0, a: 1}
  - X: 138
    Y: 67
    layer: 0
    symbol: "\u2550"
    drawColor: {r: 0.4, g: 0.3019608, b: 0, a: 1}
    backgroundDrawColor: {r: 0, g: 0, b: 0, a: 1}
  - X: 139
    Y: 67
    layer: 0
    symbol: "\u2550"
    drawColor: {r: 0.4, g: 0.3019608, b: 0, a: 1}
    backgroundDrawColor: {r: 0, g: 0, b: 0, a: 1}
  - X: 140
    Y: 67
    layer: 0
    symbol: "\u2550"
    drawColor: {r: 0.4, g: 0.3019608, b: 0, a: 1}
    backgroundDrawColor: {r: 0, g: 0, b: 0, a: 1}
  - X: 141
    Y: 67
    layer: 0
    symbol: "\u2550"
    drawColor: {r: 0.4, g: 0.3019608, b: 0, a: 1}
    backgroundDrawColor: {r: 0, g: 0, b: 0, a: 1}
  - X: 142
    Y: 67
    layer: 0
    symbol: "\u2550"
    drawColor: {r: 0.4, g: 0.3019608, b: 0, a: 1}
    backgroundDrawColor: {r: 0, g: 0, b: 0, a: 1}
  - X: 143
    Y: 67
    layer: 0
    symbol: "\u2550"
    drawColor: {r: 0.4, g: 0.3019608, b: 0, a: 1}
    backgroundDrawColor: {r: 0, g: 0, b: 0, a: 1}
  - X: 144
    Y: 67
    layer: 0
    symbol: "\u2550"
    drawColor: {r: 0.4, g: 0.3019608, b: 0, a: 1}
    backgroundDrawColor: {r: 0, g: 0, b: 0, a: 1}
  - X: 145
    Y: 67
    layer: 0
    symbol: "\u2550"
    drawColor: {r: 0.4, g: 0.3019608, b: 0, a: 1}
    backgroundDrawColor: {r: 0, g: 0, b: 0, a: 1}
  - X: 146
    Y: 67
    layer: 0
    symbol: "\u2550"
    drawColor: {r: 0.4, g: 0.3019608, b: 0, a: 1}
    backgroundDrawColor: {r: 0, g: 0, b: 0, a: 1}
  - X: 147
    Y: 67
    layer: 0
    symbol: "\u2550"
    drawColor: {r: 0.4, g: 0.3019608, b: 0, a: 1}
    backgroundDrawColor: {r: 0, g: 0, b: 0, a: 1}
  - X: 148
    Y: 67
    layer: 0
    symbol: "\u2550"
    drawColor: {r: 0.4, g: 0.3019608, b: 0, a: 1}
    backgroundDrawColor: {r: 0, g: 0, b: 0, a: 1}
  - X: 149
    Y: 67
    layer: 0
    symbol: "\u2557"
    drawColor: {r: 0.4, g: 0.3019608, b: 0, a: 1}
    backgroundDrawColor: {r: 0, g: 0, b: 0, a: 1}
  - X: 130
    Y: 68
    layer: 0
    symbol: "\u2551"
    drawColor: {r: 0.4, g: 0.3019608, b: 0, a: 1}
    backgroundDrawColor: {r: 0, g: 0, b: 0, a: 1}
  - X: 131
    Y: 68
    layer: 0
    symbol: "\u2554"
    drawColor: {r: 0.8509804, g: 0.6392157, b: 0, a: 1}
    backgroundDrawColor: {r: 0, g: 0, b: 0, a: 1}
  - X: 132
    Y: 68
    layer: 0
    symbol: "\u2550"
    drawColor: {r: 0.8509804, g: 0.6392157, b: 0, a: 1}
    backgroundDrawColor: {r: 0, g: 0, b: 0, a: 1}
  - X: 133
    Y: 68
    layer: 0
    symbol: "\u2550"
    drawColor: {r: 0.8509804, g: 0.6392157, b: 0, a: 1}
    backgroundDrawColor: {r: 0, g: 0, b: 0, a: 1}
  - X: 134
    Y: 68
    layer: 0
    symbol: "\u2550"
    drawColor: {r: 0.8509804, g: 0.6392157, b: 0, a: 1}
    backgroundDrawColor: {r: 0, g: 0, b: 0, a: 1}
  - X: 135
    Y: 68
    layer: 0
    symbol: "\u2550"
    drawColor: {r: 0.8509804, g: 0.6392157, b: 0, a: 1}
    backgroundDrawColor: {r: 0, g: 0, b: 0, a: 1}
  - X: 136
    Y: 68
    layer: 0
    symbol: "\u2550"
    drawColor: {r: 0.8509804, g: 0.6392157, b: 0, a: 1}
    backgroundDrawColor: {r: 0, g: 0, b: 0, a: 1}
  - X: 137
    Y: 68
    layer: 0
    symbol: "\u2550"
    drawColor: {r: 0.8509804, g: 0.6392157, b: 0, a: 1}
    backgroundDrawColor: {r: 0, g: 0, b: 0, a: 1}
  - X: 138
    Y: 68
    layer: 0
    symbol: "\u2550"
    drawColor: {r: 0.8509804, g: 0.6392157, b: 0, a: 1}
    backgroundDrawColor: {r: 0, g: 0, b: 0, a: 1}
  - X: 139
    Y: 68
    layer: 0
    symbol: "\u2550"
    drawColor: {r: 0.8509804, g: 0.6392157, b: 0, a: 1}
    backgroundDrawColor: {r: 0, g: 0, b: 0, a: 1}
  - X: 140
    Y: 68
    layer: 0
    symbol: "\u2550"
    drawColor: {r: 0.8509804, g: 0.6392157, b: 0, a: 1}
    backgroundDrawColor: {r: 0, g: 0, b: 0, a: 1}
  - X: 141
    Y: 68
    layer: 0
    symbol: "\u2550"
    drawColor: {r: 0.8509804, g: 0.6392157, b: 0, a: 1}
    backgroundDrawColor: {r: 0, g: 0, b: 0, a: 1}
  - X: 142
    Y: 68
    layer: 0
    symbol: "\u2550"
    drawColor: {r: 0.8509804, g: 0.6392157, b: 0, a: 1}
    backgroundDrawColor: {r: 0, g: 0, b: 0, a: 1}
  - X: 143
    Y: 68
    layer: 0
    symbol: "\u2550"
    drawColor: {r: 0.8509804, g: 0.6392157, b: 0, a: 1}
    backgroundDrawColor: {r: 0, g: 0, b: 0, a: 1}
  - X: 144
    Y: 68
    layer: 0
    symbol: "\u2550"
    drawColor: {r: 0.8509804, g: 0.6392157, b: 0, a: 1}
    backgroundDrawColor: {r: 0, g: 0, b: 0, a: 1}
  - X: 145
    Y: 68
    layer: 0
    symbol: "\u2550"
    drawColor: {r: 0.8509804, g: 0.6392157, b: 0, a: 1}
    backgroundDrawColor: {r: 0, g: 0, b: 0, a: 1}
  - X: 146
    Y: 68
    layer: 0
    symbol: "\u2550"
    drawColor: {r: 0.8509804, g: 0.6392157, b: 0, a: 1}
    backgroundDrawColor: {r: 0, g: 0, b: 0, a: 1}
  - X: 147
    Y: 68
    layer: 0
    symbol: "\u2550"
    drawColor: {r: 0.8509804, g: 0.6392157, b: 0, a: 1}
    backgroundDrawColor: {r: 0, g: 0, b: 0, a: 1}
  - X: 148
    Y: 68
    layer: 0
    symbol: "\u2557"
    drawColor: {r: 0.8509804, g: 0.6392157, b: 0, a: 1}
    backgroundDrawColor: {r: 0, g: 0, b: 0, a: 1}
  - X: 149
    Y: 68
    layer: 0
    symbol: "\u2551"
    drawColor: {r: 0.4, g: 0.3019608, b: 0, a: 1}
    backgroundDrawColor: {r: 0, g: 0, b: 0, a: 1}
  - X: 130
    Y: 69
    layer: 0
    symbol: "\u2551"
    drawColor: {r: 0.4, g: 0.3019608, b: 0, a: 1}
    backgroundDrawColor: {r: 0, g: 0, b: 0, a: 1}
  - X: 131
    Y: 69
    layer: 0
    symbol: "\u2551"
    drawColor: {r: 0.8509804, g: 0.6392157, b: 0, a: 1}
    backgroundDrawColor: {r: 0, g: 0, b: 0, a: 1}
  - X: 132
    Y: 69
    layer: 0
    symbol: "\u250C"
    drawColor: {r: 0.13725491, g: 0.13725491, b: 0.13725491, a: 1}
    backgroundDrawColor: {r: 0, g: 0, b: 0, a: 1}
  - X: 133
    Y: 69
    layer: 0
    symbol: "\u2500"
    drawColor: {r: 0.13725491, g: 0.13725491, b: 0.13725491, a: 1}
    backgroundDrawColor: {r: 0, g: 0, b: 0, a: 1}
  - X: 134
    Y: 69
    layer: 0
    symbol: "\u2500"
    drawColor: {r: 0.13725491, g: 0.13725491, b: 0.13725491, a: 1}
    backgroundDrawColor: {r: 0, g: 0, b: 0, a: 1}
  - X: 135
    Y: 69
    layer: 0
    symbol: "\u2500"
    drawColor: {r: 0.13725491, g: 0.13725491, b: 0.13725491, a: 1}
    backgroundDrawColor: {r: 0, g: 0, b: 0, a: 1}
  - X: 136
    Y: 69
    layer: 0
    symbol: "\u252C"
    drawColor: {r: 0.13725491, g: 0.13725491, b: 0.13725491, a: 1}
    backgroundDrawColor: {r: 0, g: 0, b: 0, a: 1}
  - X: 137
    Y: 69
    layer: 0
    symbol: "\u2500"
    drawColor: {r: 0.13725491, g: 0.13725491, b: 0.13725491, a: 1}
    backgroundDrawColor: {r: 0, g: 0, b: 0, a: 1}
  - X: 138
    Y: 69
    layer: 0
    symbol: "\u2500"
    drawColor: {r: 0.13725491, g: 0.13725491, b: 0.13725491, a: 1}
    backgroundDrawColor: {r: 0, g: 0, b: 0, a: 1}
  - X: 139
    Y: 69
    layer: 0
    symbol: "\u2500"
    drawColor: {r: 0.13725491, g: 0.13725491, b: 0.13725491, a: 1}
    backgroundDrawColor: {r: 0, g: 0, b: 0, a: 1}
  - X: 140
    Y: 69
    layer: 0
    symbol: "\u2500"
    drawColor: {r: 0.13725491, g: 0.13725491, b: 0.13725491, a: 1}
    backgroundDrawColor: {r: 0, g: 0, b: 0, a: 1}
  - X: 141
    Y: 69
    layer: 0
    symbol: "\u2500"
    drawColor: {r: 0.13725491, g: 0.13725491, b: 0.13725491, a: 1}
    backgroundDrawColor: {r: 0, g: 0, b: 0, a: 1}
  - X: 142
    Y: 69
    layer: 0
    symbol: "\u2500"
    drawColor: {r: 0.13725491, g: 0.13725491, b: 0.13725491, a: 1}
    backgroundDrawColor: {r: 0, g: 0, b: 0, a: 1}
  - X: 143
    Y: 69
    layer: 0
    symbol: "\u2500"
    drawColor: {r: 0.13725491, g: 0.13725491, b: 0.13725491, a: 1}
    backgroundDrawColor: {r: 0, g: 0, b: 0, a: 1}
  - X: 144
    Y: 69
    layer: 0
    symbol: "\u2500"
    drawColor: {r: 0.13725491, g: 0.13725491, b: 0.13725491, a: 1}
    backgroundDrawColor: {r: 0, g: 0, b: 0, a: 1}
  - X: 145
    Y: 69
    layer: 0
    symbol: "\u2500"
    drawColor: {r: 0.13725491, g: 0.13725491, b: 0.13725491, a: 1}
    backgroundDrawColor: {r: 0, g: 0, b: 0, a: 1}
  - X: 146
    Y: 69
    layer: 0
    symbol: "\u2500"
    drawColor: {r: 0.13725491, g: 0.13725491, b: 0.13725491, a: 1}
    backgroundDrawColor: {r: 0, g: 0, b: 0, a: 1}
  - X: 147
    Y: 69
    layer: 0
    symbol: "\u2510"
    drawColor: {r: 0.13725491, g: 0.13725491, b: 0.13725491, a: 1}
    backgroundDrawColor: {r: 0, g: 0, b: 0, a: 1}
  - X: 148
    Y: 69
    layer: 0
    symbol: "\u2551"
    drawColor: {r: 0.8509804, g: 0.6392157, b: 0, a: 1}
    backgroundDrawColor: {r: 0, g: 0, b: 0, a: 1}
  - X: 149
    Y: 69
    layer: 0
    symbol: "\u2551"
    drawColor: {r: 0.4, g: 0.3019608, b: 0, a: 1}
    backgroundDrawColor: {r: 0, g: 0, b: 0, a: 1}
  - X: 130
    Y: 70
    layer: 0
    symbol: "\u2551"
    drawColor: {r: 0.4, g: 0.3019608, b: 0, a: 1}
    backgroundDrawColor: {r: 0, g: 0, b: 0, a: 1}
  - X: 131
    Y: 70
    layer: 0
    symbol: "\u2551"
    drawColor: {r: 0.8509804, g: 0.6392157, b: 0, a: 1}
    backgroundDrawColor: {r: 0, g: 0, b: 0, a: 1}
  - X: 132
    Y: 70
    layer: 0
    symbol: "\u2502"
    drawColor: {r: 0.13725491, g: 0.13725491, b: 0.13725491, a: 1}
    backgroundDrawColor: {r: 0, g: 0, b: 0, a: 1}
  - X: 133
    Y: 70
    layer: 0
    symbol: N
    drawColor: {r: 0.54901963, g: 0.4117647, b: 0, a: 1}
    backgroundDrawColor: {r: 0, g: 0, b: 0, a: 1}
  - X: 134
    Y: 70
    layer: 0
    symbol: ':'
    drawColor: {r: 0.54901963, g: 0.4117647, b: 0, a: 1}
    backgroundDrawColor: {r: 0, g: 0, b: 0, a: 1}
  - X: 135
    Y: 70
    layer: 0
    symbol: ' '
    drawColor: {r: 0, g: 0, b: 0, a: 1}
    backgroundDrawColor: {r: 0, g: 0, b: 0, a: 1}
  - X: 136
    Y: 70
    layer: 0
    symbol: "\u2502"
    drawColor: {r: 0.13725491, g: 0.13725491, b: 0.13725491, a: 1}
    backgroundDrawColor: {r: 0, g: 0, b: 0, a: 1}
  - X: 137
    Y: 70
    layer: 0
    symbol: ' '
    drawColor: {r: 0.06666667, g: 0.06666667, b: 0.06666667, a: 1}
    backgroundDrawColor: {r: 0.06666667, g: 0.06666667, b: 0.06666667, a: 1}
  - X: 138
    Y: 70
    layer: 0
    symbol: ' '
    drawColor: {r: 0.06666667, g: 0.06666667, b: 0.06666667, a: 1}
    backgroundDrawColor: {r: 0.06666667, g: 0.06666667, b: 0.06666667, a: 1}
  - X: 139
    Y: 70
    layer: 0
    symbol: ' '
    drawColor: {r: 0.06666667, g: 0.06666667, b: 0.06666667, a: 1}
    backgroundDrawColor: {r: 0.06666667, g: 0.06666667, b: 0.06666667, a: 1}
  - X: 140
    Y: 70
    layer: 0
    symbol: ' '
    drawColor: {r: 0.06666667, g: 0.06666667, b: 0.06666667, a: 1}
    backgroundDrawColor: {r: 0.06666667, g: 0.06666667, b: 0.06666667, a: 1}
  - X: 141
    Y: 70
    layer: 0
    symbol: ' '
    drawColor: {r: 0.06666667, g: 0.06666667, b: 0.06666667, a: 1}
    backgroundDrawColor: {r: 0.06666667, g: 0.06666667, b: 0.06666667, a: 1}
  - X: 142
    Y: 70
    layer: 0
    symbol: ' '
    drawColor: {r: 0.06666667, g: 0.06666667, b: 0.06666667, a: 1}
    backgroundDrawColor: {r: 0.06666667, g: 0.06666667, b: 0.06666667, a: 1}
  - X: 143
    Y: 70
    layer: 0
    symbol: ' '
    drawColor: {r: 0.06666667, g: 0.06666667, b: 0.06666667, a: 1}
    backgroundDrawColor: {r: 0.06666667, g: 0.06666667, b: 0.06666667, a: 1}
  - X: 144
    Y: 70
    layer: 0
    symbol: ' '
    drawColor: {r: 0.06666667, g: 0.06666667, b: 0.06666667, a: 1}
    backgroundDrawColor: {r: 0.06666667, g: 0.06666667, b: 0.06666667, a: 1}
  - X: 145
    Y: 70
    layer: 0
    symbol: ' '
    drawColor: {r: 0.06666667, g: 0.06666667, b: 0.06666667, a: 1}
    backgroundDrawColor: {r: 0.06666667, g: 0.06666667, b: 0.06666667, a: 1}
  - X: 146
    Y: 70
    layer: 0
    symbol: ' '
    drawColor: {r: 0.06666667, g: 0.06666667, b: 0.06666667, a: 1}
    backgroundDrawColor: {r: 0.06666667, g: 0.06666667, b: 0.06666667, a: 1}
  - X: 147
    Y: 70
    layer: 0
    symbol: "\u2502"
    drawColor: {r: 0.13725491, g: 0.13725491, b: 0.13725491, a: 1}
    backgroundDrawColor: {r: 0, g: 0, b: 0, a: 1}
  - X: 148
    Y: 70
    layer: 0
    symbol: "\u2551"
    drawColor: {r: 0.8509804, g: 0.6392157, b: 0, a: 1}
    backgroundDrawColor: {r: 0, g: 0, b: 0, a: 1}
  - X: 149
    Y: 70
    layer: 0
    symbol: "\u2551"
    drawColor: {r: 0.4, g: 0.3019608, b: 0, a: 1}
    backgroundDrawColor: {r: 0, g: 0, b: 0, a: 1}
  - X: 130
    Y: 71
    layer: 0
    symbol: "\u2551"
    drawColor: {r: 0.4, g: 0.3019608, b: 0, a: 1}
    backgroundDrawColor: {r: 0, g: 0, b: 0, a: 1}
  - X: 131
    Y: 71
    layer: 0
    symbol: "\u2551"
    drawColor: {r: 0.8509804, g: 0.6392157, b: 0, a: 1}
    backgroundDrawColor: {r: 0, g: 0, b: 0, a: 1}
  - X: 132
    Y: 71
    layer: 0
    symbol: "\u251C"
    drawColor: {r: 0.13725491, g: 0.13725491, b: 0.13725491, a: 1}
    backgroundDrawColor: {r: 0, g: 0, b: 0, a: 1}
  - X: 133
    Y: 71
    layer: 0
    symbol: "\u2500"
    drawColor: {r: 0.13725491, g: 0.13725491, b: 0.13725491, a: 1}
    backgroundDrawColor: {r: 0, g: 0, b: 0, a: 1}
  - X: 134
    Y: 71
    layer: 0
    symbol: "\u2500"
    drawColor: {r: 0.13725491, g: 0.13725491, b: 0.13725491, a: 1}
    backgroundDrawColor: {r: 0, g: 0, b: 0, a: 1}
  - X: 135
    Y: 71
    layer: 0
    symbol: "\u2500"
    drawColor: {r: 0.13725491, g: 0.13725491, b: 0.13725491, a: 1}
    backgroundDrawColor: {r: 0, g: 0, b: 0, a: 1}
  - X: 136
    Y: 71
    layer: 0
    symbol: "\u253C"
    drawColor: {r: 0.13725491, g: 0.13725491, b: 0.13725491, a: 1}
    backgroundDrawColor: {r: 0, g: 0, b: 0, a: 1}
  - X: 137
    Y: 71
    layer: 0
    symbol: "\u2500"
    drawColor: {r: 0.13725491, g: 0.13725491, b: 0.13725491, a: 1}
    backgroundDrawColor: {r: 0, g: 0, b: 0, a: 1}
  - X: 138
    Y: 71
    layer: 0
    symbol: "\u2500"
    drawColor: {r: 0.13725491, g: 0.13725491, b: 0.13725491, a: 1}
    backgroundDrawColor: {r: 0, g: 0, b: 0, a: 1}
  - X: 139
    Y: 71
    layer: 0
    symbol: "\u2500"
    drawColor: {r: 0.13725491, g: 0.13725491, b: 0.13725491, a: 1}
    backgroundDrawColor: {r: 0, g: 0, b: 0, a: 1}
  - X: 140
    Y: 71
    layer: 0
    symbol: "\u2500"
    drawColor: {r: 0.13725491, g: 0.13725491, b: 0.13725491, a: 1}
    backgroundDrawColor: {r: 0, g: 0, b: 0, a: 1}
  - X: 141
    Y: 71
    layer: 0
    symbol: "\u2500"
    drawColor: {r: 0.13725491, g: 0.13725491, b: 0.13725491, a: 1}
    backgroundDrawColor: {r: 0, g: 0, b: 0, a: 1}
  - X: 142
    Y: 71
    layer: 0
    symbol: "\u2500"
    drawColor: {r: 0.13725491, g: 0.13725491, b: 0.13725491, a: 1}
    backgroundDrawColor: {r: 0, g: 0, b: 0, a: 1}
  - X: 143
    Y: 71
    layer: 0
    symbol: "\u2500"
    drawColor: {r: 0.13725491, g: 0.13725491, b: 0.13725491, a: 1}
    backgroundDrawColor: {r: 0, g: 0, b: 0, a: 1}
  - X: 144
    Y: 71
    layer: 0
    symbol: "\u2500"
    drawColor: {r: 0.13725491, g: 0.13725491, b: 0.13725491, a: 1}
    backgroundDrawColor: {r: 0, g: 0, b: 0, a: 1}
  - X: 145
    Y: 71
    layer: 0
    symbol: "\u2500"
    drawColor: {r: 0.13725491, g: 0.13725491, b: 0.13725491, a: 1}
    backgroundDrawColor: {r: 0, g: 0, b: 0, a: 1}
  - X: 146
    Y: 71
    layer: 0
    symbol: "\u2500"
    drawColor: {r: 0.13725491, g: 0.13725491, b: 0.13725491, a: 1}
    backgroundDrawColor: {r: 0, g: 0, b: 0, a: 1}
  - X: 147
    Y: 71
    layer: 0
    symbol: "\u2524"
    drawColor: {r: 0.13725491, g: 0.13725491, b: 0.13725491, a: 1}
    backgroundDrawColor: {r: 0, g: 0, b: 0, a: 1}
  - X: 148
    Y: 71
    layer: 0
    symbol: "\u2551"
    drawColor: {r: 0.8509804, g: 0.6392157, b: 0, a: 1}
    backgroundDrawColor: {r: 0, g: 0, b: 0, a: 1}
  - X: 149
    Y: 71
    layer: 0
    symbol: "\u2551"
    drawColor: {r: 0.4, g: 0.3019608, b: 0, a: 1}
    backgroundDrawColor: {r: 0, g: 0, b: 0, a: 1}
  - X: 130
    Y: 72
    layer: 0
    symbol: "\u2551"
    drawColor: {r: 0.4, g: 0.3019608, b: 0, a: 1}
    backgroundDrawColor: {r: 0, g: 0, b: 0, a: 1}
  - X: 131
    Y: 72
    layer: 0
    symbol: "\u2551"
    drawColor: {r: 0.8509804, g: 0.6392157, b: 0, a: 1}
    backgroundDrawColor: {r: 0, g: 0, b: 0, a: 1}
  - X: 132
    Y: 72
    layer: 0
    symbol: "\u2502"
    drawColor: {r: 0.13725491, g: 0.13725491, b: 0.13725491, a: 1}
    backgroundDrawColor: {r: 0, g: 0, b: 0, a: 1}
  - X: 133
    Y: 72
    layer: 0
    symbol: C
    drawColor: {r: 0.54901963, g: 0.4117647, b: 0, a: 1}
    backgroundDrawColor: {r: 0, g: 0, b: 0, a: 1}
  - X: 134
    Y: 72
    layer: 0
    symbol: ':'
    drawColor: {r: 0.54901963, g: 0.4117647, b: 0, a: 1}
    backgroundDrawColor: {r: 0, g: 0, b: 0, a: 1}
  - X: 135
    Y: 72
    layer: 0
    symbol: ' '
    drawColor: {r: 0, g: 0, b: 0, a: 1}
    backgroundDrawColor: {r: 0, g: 0, b: 0, a: 1}
  - X: 136
    Y: 72
    layer: 0
    symbol: "\u2502"
    drawColor: {r: 0.13725491, g: 0.13725491, b: 0.13725491, a: 1}
    backgroundDrawColor: {r: 0, g: 0, b: 0, a: 1}
  - X: 137
    Y: 72
    layer: 0
    symbol: ' '
    drawColor: {r: 0.050980393, g: 0.050980393, b: 0.050980393, a: 1}
    backgroundDrawColor: {r: 0.050980393, g: 0.050980393, b: 0.050980393, a: 1}
  - X: 138
    Y: 72
    layer: 0
    symbol: ' '
    drawColor: {r: 0.050980393, g: 0.050980393, b: 0.050980393, a: 1}
    backgroundDrawColor: {r: 0.050980393, g: 0.050980393, b: 0.050980393, a: 1}
  - X: 139
    Y: 72
    layer: 0
    symbol: ' '
    drawColor: {r: 0.050980393, g: 0.050980393, b: 0.050980393, a: 1}
    backgroundDrawColor: {r: 0.050980393, g: 0.050980393, b: 0.050980393, a: 1}
  - X: 140
    Y: 72
    layer: 0
    symbol: ' '
    drawColor: {r: 0.050980393, g: 0.050980393, b: 0.050980393, a: 1}
    backgroundDrawColor: {r: 0.050980393, g: 0.050980393, b: 0.050980393, a: 1}
  - X: 141
    Y: 72
    layer: 0
    symbol: ' '
    drawColor: {r: 0.050980393, g: 0.050980393, b: 0.050980393, a: 1}
    backgroundDrawColor: {r: 0.050980393, g: 0.050980393, b: 0.050980393, a: 1}
  - X: 142
    Y: 72
    layer: 0
    symbol: ' '
    drawColor: {r: 0.050980393, g: 0.050980393, b: 0.050980393, a: 1}
    backgroundDrawColor: {r: 0.050980393, g: 0.050980393, b: 0.050980393, a: 1}
  - X: 143
    Y: 72
    layer: 0
    symbol: ' '
    drawColor: {r: 0.050980393, g: 0.050980393, b: 0.050980393, a: 1}
    backgroundDrawColor: {r: 0.050980393, g: 0.050980393, b: 0.050980393, a: 1}
  - X: 144
    Y: 72
    layer: 0
    symbol: ' '
    drawColor: {r: 0.050980393, g: 0.050980393, b: 0.050980393, a: 1}
    backgroundDrawColor: {r: 0.050980393, g: 0.050980393, b: 0.050980393, a: 1}
  - X: 145
    Y: 72
    layer: 0
    symbol: ' '
    drawColor: {r: 0.050980393, g: 0.050980393, b: 0.050980393, a: 1}
    backgroundDrawColor: {r: 0.050980393, g: 0.050980393, b: 0.050980393, a: 1}
  - X: 146
    Y: 72
    layer: 0
    symbol: ' '
    drawColor: {r: 0.050980393, g: 0.050980393, b: 0.050980393, a: 1}
    backgroundDrawColor: {r: 0.050980393, g: 0.050980393, b: 0.050980393, a: 1}
  - X: 147
    Y: 72
    layer: 0
    symbol: "\u2502"
    drawColor: {r: 0.13725491, g: 0.13725491, b: 0.13725491, a: 1}
    backgroundDrawColor: {r: 0, g: 0, b: 0, a: 1}
  - X: 148
    Y: 72
    layer: 0
    symbol: "\u2551"
    drawColor: {r: 0.8509804, g: 0.6392157, b: 0, a: 1}
    backgroundDrawColor: {r: 0, g: 0, b: 0, a: 1}
  - X: 149
    Y: 72
    layer: 0
    symbol: "\u2551"
    drawColor: {r: 0.4, g: 0.3019608, b: 0, a: 1}
    backgroundDrawColor: {r: 0, g: 0, b: 0, a: 1}
  - X: 130
    Y: 73
    layer: 0
    symbol: "\u2551"
    drawColor: {r: 0.4, g: 0.3019608, b: 0, a: 1}
    backgroundDrawColor: {r: 0, g: 0, b: 0, a: 1}
  - X: 131
    Y: 73
    layer: 0
    symbol: "\u2551"
    drawColor: {r: 0.8509804, g: 0.6392157, b: 0, a: 1}
    backgroundDrawColor: {r: 0, g: 0, b: 0, a: 1}
  - X: 132
    Y: 73
    layer: 0
    symbol: "\u251C"
    drawColor: {r: 0.13725491, g: 0.13725491, b: 0.13725491, a: 1}
    backgroundDrawColor: {r: 0, g: 0, b: 0, a: 1}
  - X: 133
    Y: 73
    layer: 0
    symbol: "\u2500"
    drawColor: {r: 0.13725491, g: 0.13725491, b: 0.13725491, a: 1}
    backgroundDrawColor: {r: 0, g: 0, b: 0, a: 1}
  - X: 134
    Y: 73
    layer: 0
    symbol: "\u2500"
    drawColor: {r: 0.13725491, g: 0.13725491, b: 0.13725491, a: 1}
    backgroundDrawColor: {r: 0, g: 0, b: 0, a: 1}
  - X: 135
    Y: 73
    layer: 0
    symbol: "\u2500"
    drawColor: {r: 0.13725491, g: 0.13725491, b: 0.13725491, a: 1}
    backgroundDrawColor: {r: 0, g: 0, b: 0, a: 1}
  - X: 136
    Y: 73
    layer: 0
    symbol: "\u253C"
    drawColor: {r: 0.13725491, g: 0.13725491, b: 0.13725491, a: 1}
    backgroundDrawColor: {r: 0, g: 0, b: 0, a: 1}
  - X: 137
    Y: 73
    layer: 0
    symbol: "\u2500"
    drawColor: {r: 0.13725491, g: 0.13725491, b: 0.13725491, a: 1}
    backgroundDrawColor: {r: 0, g: 0, b: 0, a: 1}
  - X: 138
    Y: 73
    layer: 0
    symbol: "\u2500"
    drawColor: {r: 0.13725491, g: 0.13725491, b: 0.13725491, a: 1}
    backgroundDrawColor: {r: 0, g: 0, b: 0, a: 1}
  - X: 139
    Y: 73
    layer: 0
    symbol: "\u2500"
    drawColor: {r: 0.13725491, g: 0.13725491, b: 0.13725491, a: 1}
    backgroundDrawColor: {r: 0, g: 0, b: 0, a: 1}
  - X: 140
    Y: 73
    layer: 0
    symbol: "\u2500"
    drawColor: {r: 0.13725491, g: 0.13725491, b: 0.13725491, a: 1}
    backgroundDrawColor: {r: 0, g: 0, b: 0, a: 1}
  - X: 141
    Y: 73
    layer: 0
    symbol: "\u2500"
    drawColor: {r: 0.13725491, g: 0.13725491, b: 0.13725491, a: 1}
    backgroundDrawColor: {r: 0, g: 0, b: 0, a: 1}
  - X: 142
    Y: 73
    layer: 0
    symbol: "\u2500"
    drawColor: {r: 0.13725491, g: 0.13725491, b: 0.13725491, a: 1}
    backgroundDrawColor: {r: 0, g: 0, b: 0, a: 1}
  - X: 143
    Y: 73
    layer: 0
    symbol: "\u2500"
    drawColor: {r: 0.13725491, g: 0.13725491, b: 0.13725491, a: 1}
    backgroundDrawColor: {r: 0, g: 0, b: 0, a: 1}
  - X: 144
    Y: 73
    layer: 0
    symbol: "\u2500"
    drawColor: {r: 0.13725491, g: 0.13725491, b: 0.13725491, a: 1}
    backgroundDrawColor: {r: 0, g: 0, b: 0, a: 1}
  - X: 145
    Y: 73
    layer: 0
    symbol: "\u2500"
    drawColor: {r: 0.13725491, g: 0.13725491, b: 0.13725491, a: 1}
    backgroundDrawColor: {r: 0, g: 0, b: 0, a: 1}
  - X: 146
    Y: 73
    layer: 0
    symbol: "\u2500"
    drawColor: {r: 0.13725491, g: 0.13725491, b: 0.13725491, a: 1}
    backgroundDrawColor: {r: 0, g: 0, b: 0, a: 1}
  - X: 147
    Y: 73
    layer: 0
    symbol: "\u2524"
    drawColor: {r: 0.13725491, g: 0.13725491, b: 0.13725491, a: 1}
    backgroundDrawColor: {r: 0, g: 0, b: 0, a: 1}
  - X: 148
    Y: 73
    layer: 0
    symbol: "\u2551"
    drawColor: {r: 0.8509804, g: 0.6392157, b: 0, a: 1}
    backgroundDrawColor: {r: 0, g: 0, b: 0, a: 1}
  - X: 149
    Y: 73
    layer: 0
    symbol: "\u2551"
    drawColor: {r: 0.4, g: 0.3019608, b: 0, a: 1}
    backgroundDrawColor: {r: 0, g: 0, b: 0, a: 1}
  - X: 130
    Y: 74
    layer: 0
    symbol: "\u2551"
    drawColor: {r: 0.4, g: 0.3019608, b: 0, a: 1}
    backgroundDrawColor: {r: 0, g: 0, b: 0, a: 1}
  - X: 131
    Y: 74
    layer: 0
    symbol: "\u2551"
    drawColor: {r: 0.8509804, g: 0.6392157, b: 0, a: 1}
    backgroundDrawColor: {r: 0, g: 0, b: 0, a: 1}
  - X: 132
    Y: 74
    layer: 0
    symbol: "\u2502"
    drawColor: {r: 0.13725491, g: 0.13725491, b: 0.13725491, a: 1}
    backgroundDrawColor: {r: 0, g: 0, b: 0, a: 1}
  - X: 133
    Y: 74
    layer: 0
    symbol: O
    drawColor: {r: 0.54901963, g: 0.4117647, b: 0, a: 1}
    backgroundDrawColor: {r: 0, g: 0, b: 0, a: 1}
  - X: 134
    Y: 74
    layer: 0
    symbol: ':'
    drawColor: {r: 0.54901963, g: 0.4117647, b: 0, a: 1}
    backgroundDrawColor: {r: 0, g: 0, b: 0, a: 1}
  - X: 135
    Y: 74
    layer: 0
    symbol: ' '
    drawColor: {r: 0, g: 0, b: 0, a: 1}
    backgroundDrawColor: {r: 0, g: 0, b: 0, a: 1}
  - X: 136
    Y: 74
    layer: 0
    symbol: "\u2502"
    drawColor: {r: 0.13725491, g: 0.13725491, b: 0.13725491, a: 1}
    backgroundDrawColor: {r: 0, g: 0, b: 0, a: 1}
  - X: 137
    Y: 74
    layer: 0
    symbol: ' '
    drawColor: {r: 0.06666667, g: 0.06666667, b: 0.06666667, a: 1}
    backgroundDrawColor: {r: 0.06666667, g: 0.06666667, b: 0.06666667, a: 1}
  - X: 138
    Y: 74
    layer: 0
    symbol: ' '
    drawColor: {r: 0.06666667, g: 0.06666667, b: 0.06666667, a: 1}
    backgroundDrawColor: {r: 0.06666667, g: 0.06666667, b: 0.06666667, a: 1}
  - X: 139
    Y: 74
    layer: 0
    symbol: ' '
    drawColor: {r: 0.06666667, g: 0.06666667, b: 0.06666667, a: 1}
    backgroundDrawColor: {r: 0.06666667, g: 0.06666667, b: 0.06666667, a: 1}
  - X: 140
    Y: 74
    layer: 0
    symbol: ' '
    drawColor: {r: 0.06666667, g: 0.06666667, b: 0.06666667, a: 1}
    backgroundDrawColor: {r: 0.06666667, g: 0.06666667, b: 0.06666667, a: 1}
  - X: 141
    Y: 74
    layer: 0
    symbol: ' '
    drawColor: {r: 0.06666667, g: 0.06666667, b: 0.06666667, a: 1}
    backgroundDrawColor: {r: 0.06666667, g: 0.06666667, b: 0.06666667, a: 1}
  - X: 142
    Y: 74
    layer: 0
    symbol: ' '
    drawColor: {r: 0.06666667, g: 0.06666667, b: 0.06666667, a: 1}
    backgroundDrawColor: {r: 0.06666667, g: 0.06666667, b: 0.06666667, a: 1}
  - X: 143
    Y: 74
    layer: 0
    symbol: ' '
    drawColor: {r: 0.06666667, g: 0.06666667, b: 0.06666667, a: 1}
    backgroundDrawColor: {r: 0.06666667, g: 0.06666667, b: 0.06666667, a: 1}
  - X: 144
    Y: 74
    layer: 0
    symbol: ' '
    drawColor: {r: 0.06666667, g: 0.06666667, b: 0.06666667, a: 1}
    backgroundDrawColor: {r: 0.06666667, g: 0.06666667, b: 0.06666667, a: 1}
  - X: 145
    Y: 74
    layer: 0
    symbol: ' '
    drawColor: {r: 0.06666667, g: 0.06666667, b: 0.06666667, a: 1}
    backgroundDrawColor: {r: 0.06666667, g: 0.06666667, b: 0.06666667, a: 1}
  - X: 146
    Y: 74
    layer: 0
    symbol: ' '
    drawColor: {r: 0.06666667, g: 0.06666667, b: 0.06666667, a: 1}
    backgroundDrawColor: {r: 0.06666667, g: 0.06666667, b: 0.06666667, a: 1}
  - X: 147
    Y: 74
    layer: 0
    symbol: "\u2502"
    drawColor: {r: 0.13725491, g: 0.13725491, b: 0.13725491, a: 1}
    backgroundDrawColor: {r: 0, g: 0, b: 0, a: 1}
  - X: 148
    Y: 74
    layer: 0
    symbol: "\u2551"
    drawColor: {r: 0.8509804, g: 0.6392157, b: 0, a: 1}
    backgroundDrawColor: {r: 0, g: 0, b: 0, a: 1}
  - X: 149
    Y: 74
    layer: 0
    symbol: "\u2551"
    drawColor: {r: 0.4, g: 0.3019608, b: 0, a: 1}
    backgroundDrawColor: {r: 0, g: 0, b: 0, a: 1}
  - X: 130
    Y: 75
    layer: 0
    symbol: "\u2551"
    drawColor: {r: 0.4, g: 0.3019608, b: 0, a: 1}
    backgroundDrawColor: {r: 0, g: 0, b: 0, a: 1}
  - X: 131
    Y: 75
    layer: 0
    symbol: "\u2551"
    drawColor: {r: 0.8509804, g: 0.6392157, b: 0, a: 1}
    backgroundDrawColor: {r: 0, g: 0, b: 0, a: 1}
  - X: 132
    Y: 75
    layer: 0
    symbol: "\u251C"
    drawColor: {r: 0.13725491, g: 0.13725491, b: 0.13725491, a: 1}
    backgroundDrawColor: {r: 0, g: 0, b: 0, a: 1}
  - X: 133
    Y: 75
    layer: 0
    symbol: "\u2500"
    drawColor: {r: 0.13725491, g: 0.13725491, b: 0.13725491, a: 1}
    backgroundDrawColor: {r: 0, g: 0, b: 0, a: 1}
  - X: 134
    Y: 75
    layer: 0
    symbol: "\u2500"
    drawColor: {r: 0.13725491, g: 0.13725491, b: 0.13725491, a: 1}
    backgroundDrawColor: {r: 0, g: 0, b: 0, a: 1}
  - X: 135
    Y: 75
    layer: 0
    symbol: "\u2500"
    drawColor: {r: 0.13725491, g: 0.13725491, b: 0.13725491, a: 1}
    backgroundDrawColor: {r: 0, g: 0, b: 0, a: 1}
  - X: 136
    Y: 75
    layer: 0
    symbol: "\u253C"
    drawColor: {r: 0.13725491, g: 0.13725491, b: 0.13725491, a: 1}
    backgroundDrawColor: {r: 0, g: 0, b: 0, a: 1}
  - X: 137
    Y: 75
    layer: 0
    symbol: "\u2500"
    drawColor: {r: 0.13725491, g: 0.13725491, b: 0.13725491, a: 1}
    backgroundDrawColor: {r: 0, g: 0, b: 0, a: 1}
  - X: 138
    Y: 75
    layer: 0
    symbol: "\u2500"
    drawColor: {r: 0.13725491, g: 0.13725491, b: 0.13725491, a: 1}
    backgroundDrawColor: {r: 0, g: 0, b: 0, a: 1}
  - X: 139
    Y: 75
    layer: 0
    symbol: "\u2500"
    drawColor: {r: 0.13725491, g: 0.13725491, b: 0.13725491, a: 1}
    backgroundDrawColor: {r: 0, g: 0, b: 0, a: 1}
  - X: 140
    Y: 75
    layer: 0
    symbol: "\u2500"
    drawColor: {r: 0.13725491, g: 0.13725491, b: 0.13725491, a: 1}
    backgroundDrawColor: {r: 0, g: 0, b: 0, a: 1}
  - X: 141
    Y: 75
    layer: 0
    symbol: "\u2500"
    drawColor: {r: 0.13725491, g: 0.13725491, b: 0.13725491, a: 1}
    backgroundDrawColor: {r: 0, g: 0, b: 0, a: 1}
  - X: 142
    Y: 75
    layer: 0
    symbol: "\u2500"
    drawColor: {r: 0.13725491, g: 0.13725491, b: 0.13725491, a: 1}
    backgroundDrawColor: {r: 0, g: 0, b: 0, a: 1}
  - X: 143
    Y: 75
    layer: 0
    symbol: "\u2500"
    drawColor: {r: 0.13725491, g: 0.13725491, b: 0.13725491, a: 1}
    backgroundDrawColor: {r: 0, g: 0, b: 0, a: 1}
  - X: 144
    Y: 75
    layer: 0
    symbol: "\u2500"
    drawColor: {r: 0.13725491, g: 0.13725491, b: 0.13725491, a: 1}
    backgroundDrawColor: {r: 0, g: 0, b: 0, a: 1}
  - X: 145
    Y: 75
    layer: 0
    symbol: "\u2500"
    drawColor: {r: 0.13725491, g: 0.13725491, b: 0.13725491, a: 1}
    backgroundDrawColor: {r: 0, g: 0, b: 0, a: 1}
  - X: 146
    Y: 75
    layer: 0
    symbol: "\u2500"
    drawColor: {r: 0.13725491, g: 0.13725491, b: 0.13725491, a: 1}
    backgroundDrawColor: {r: 0, g: 0, b: 0, a: 1}
  - X: 147
    Y: 75
    layer: 0
    symbol: "\u2524"
    drawColor: {r: 0.13725491, g: 0.13725491, b: 0.13725491, a: 1}
    backgroundDrawColor: {r: 0, g: 0, b: 0, a: 1}
  - X: 148
    Y: 75
    layer: 0
    symbol: "\u2551"
    drawColor: {r: 0.8509804, g: 0.6392157, b: 0, a: 1}
    backgroundDrawColor: {r: 0, g: 0, b: 0, a: 1}
  - X: 149
    Y: 75
    layer: 0
    symbol: "\u2551"
    drawColor: {r: 0.4, g: 0.3019608, b: 0, a: 1}
    backgroundDrawColor: {r: 0, g: 0, b: 0, a: 1}
  - X: 130
    Y: 76
    layer: 0
    symbol: "\u2551"
    drawColor: {r: 0.4, g: 0.3019608, b: 0, a: 1}
    backgroundDrawColor: {r: 0, g: 0, b: 0, a: 1}
  - X: 131
    Y: 76
    layer: 0
    symbol: "\u2551"
    drawColor: {r: 0.8509804, g: 0.6392157, b: 0, a: 1}
    backgroundDrawColor: {r: 0, g: 0, b: 0, a: 1}
  - X: 132
    Y: 76
    layer: 0
    symbol: "\u2502"
    drawColor: {r: 0.13725491, g: 0.13725491, b: 0.13725491, a: 1}
    backgroundDrawColor: {r: 0, g: 0, b: 0, a: 1}
  - X: 133
    Y: 76
    layer: 0
    symbol: Q
    drawColor: {r: 0.54901963, g: 0.4117647, b: 0, a: 1}
    backgroundDrawColor: {r: 0, g: 0, b: 0, a: 1}
  - X: 134
    Y: 76
    layer: 0
    symbol: ':'
    drawColor: {r: 0.54901963, g: 0.4117647, b: 0, a: 1}
    backgroundDrawColor: {r: 0, g: 0, b: 0, a: 1}
  - X: 135
    Y: 76
    layer: 0
    symbol: ' '
    drawColor: {r: 0, g: 0, b: 0, a: 1}
    backgroundDrawColor: {r: 0, g: 0, b: 0, a: 1}
  - X: 136
    Y: 76
    layer: 0
    symbol: "\u2502"
    drawColor: {r: 0.13725491, g: 0.13725491, b: 0.13725491, a: 1}
    backgroundDrawColor: {r: 0, g: 0, b: 0, a: 1}
  - X: 137
    Y: 76
    layer: 0
    symbol: ' '
    drawColor: {r: 0.050980393, g: 0.050980393, b: 0.050980393, a: 1}
    backgroundDrawColor: {r: 0.050980393, g: 0.050980393, b: 0.050980393, a: 1}
  - X: 138
    Y: 76
    layer: 0
    symbol: ' '
    drawColor: {r: 0.050980393, g: 0.050980393, b: 0.050980393, a: 1}
    backgroundDrawColor: {r: 0.050980393, g: 0.050980393, b: 0.050980393, a: 1}
  - X: 139
    Y: 76
    layer: 0
    symbol: ' '
    drawColor: {r: 0.050980393, g: 0.050980393, b: 0.050980393, a: 1}
    backgroundDrawColor: {r: 0.050980393, g: 0.050980393, b: 0.050980393, a: 1}
  - X: 140
    Y: 76
    layer: 0
    symbol: ' '
    drawColor: {r: 0.050980393, g: 0.050980393, b: 0.050980393, a: 1}
    backgroundDrawColor: {r: 0.050980393, g: 0.050980393, b: 0.050980393, a: 1}
  - X: 141
    Y: 76
    layer: 0
    symbol: ' '
    drawColor: {r: 0.050980393, g: 0.050980393, b: 0.050980393, a: 1}
    backgroundDrawColor: {r: 0.050980393, g: 0.050980393, b: 0.050980393, a: 1}
  - X: 142
    Y: 76
    layer: 0
    symbol: ' '
    drawColor: {r: 0.050980393, g: 0.050980393, b: 0.050980393, a: 1}
    backgroundDrawColor: {r: 0.050980393, g: 0.050980393, b: 0.050980393, a: 1}
  - X: 143
    Y: 76
    layer: 0
    symbol: ' '
    drawColor: {r: 0.050980393, g: 0.050980393, b: 0.050980393, a: 1}
    backgroundDrawColor: {r: 0.050980393, g: 0.050980393, b: 0.050980393, a: 1}
  - X: 144
    Y: 76
    layer: 0
    symbol: ' '
    drawColor: {r: 0.050980393, g: 0.050980393, b: 0.050980393, a: 1}
    backgroundDrawColor: {r: 0.050980393, g: 0.050980393, b: 0.050980393, a: 1}
  - X: 145
    Y: 76
    layer: 0
    symbol: ' '
    drawColor: {r: 0.050980393, g: 0.050980393, b: 0.050980393, a: 1}
    backgroundDrawColor: {r: 0.050980393, g: 0.050980393, b: 0.050980393, a: 1}
  - X: 146
    Y: 76
    layer: 0
    symbol: ' '
    drawColor: {r: 0.050980393, g: 0.050980393, b: 0.050980393, a: 1}
    backgroundDrawColor: {r: 0.050980393, g: 0.050980393, b: 0.050980393, a: 1}
  - X: 147
    Y: 76
    layer: 0
    symbol: "\u2502"
    drawColor: {r: 0.13725491, g: 0.13725491, b: 0.13725491, a: 1}
    backgroundDrawColor: {r: 0, g: 0, b: 0, a: 1}
  - X: 148
    Y: 76
    layer: 0
    symbol: "\u2551"
    drawColor: {r: 0.8509804, g: 0.6392157, b: 0, a: 1}
    backgroundDrawColor: {r: 0, g: 0, b: 0, a: 1}
  - X: 149
    Y: 76
    layer: 0
    symbol: "\u2551"
    drawColor: {r: 0.4, g: 0.3019608, b: 0, a: 1}
    backgroundDrawColor: {r: 0, g: 0, b: 0, a: 1}
  - X: 130
    Y: 77
    layer: 0
    symbol: "\u2551"
    drawColor: {r: 0.4, g: 0.3019608, b: 0, a: 1}
    backgroundDrawColor: {r: 0, g: 0, b: 0, a: 1}
  - X: 131
    Y: 77
    layer: 0
    symbol: "\u2551"
    drawColor: {r: 0.8509804, g: 0.6392157, b: 0, a: 1}
    backgroundDrawColor: {r: 0, g: 0, b: 0, a: 1}
  - X: 132
    Y: 77
    layer: 0
    symbol: "\u2514"
    drawColor: {r: 0.13725491, g: 0.13725491, b: 0.13725491, a: 1}
    backgroundDrawColor: {r: 0, g: 0, b: 0, a: 1}
  - X: 133
    Y: 77
    layer: 0
    symbol: "\u2500"
    drawColor: {r: 0.13725491, g: 0.13725491, b: 0.13725491, a: 1}
    backgroundDrawColor: {r: 0, g: 0, b: 0, a: 1}
  - X: 134
    Y: 77
    layer: 0
    symbol: "\u2500"
    drawColor: {r: 0.13725491, g: 0.13725491, b: 0.13725491, a: 1}
    backgroundDrawColor: {r: 0, g: 0, b: 0, a: 1}
  - X: 135
    Y: 77
    layer: 0
    symbol: "\u2500"
    drawColor: {r: 0.13725491, g: 0.13725491, b: 0.13725491, a: 1}
    backgroundDrawColor: {r: 0, g: 0, b: 0, a: 1}
  - X: 136
    Y: 77
    layer: 0
    symbol: "\u2534"
    drawColor: {r: 0.13725491, g: 0.13725491, b: 0.13725491, a: 1}
    backgroundDrawColor: {r: 0, g: 0, b: 0, a: 1}
  - X: 137
    Y: 77
    layer: 0
    symbol: "\u2500"
    drawColor: {r: 0.13725491, g: 0.13725491, b: 0.13725491, a: 1}
    backgroundDrawColor: {r: 0, g: 0, b: 0, a: 1}
  - X: 138
    Y: 77
    layer: 0
    symbol: "\u2500"
    drawColor: {r: 0.13725491, g: 0.13725491, b: 0.13725491, a: 1}
    backgroundDrawColor: {r: 0, g: 0, b: 0, a: 1}
  - X: 139
    Y: 77
    layer: 0
    symbol: "\u2500"
    drawColor: {r: 0.13725491, g: 0.13725491, b: 0.13725491, a: 1}
    backgroundDrawColor: {r: 0, g: 0, b: 0, a: 1}
  - X: 140
    Y: 77
    layer: 0
    symbol: "\u2500"
    drawColor: {r: 0.13725491, g: 0.13725491, b: 0.13725491, a: 1}
    backgroundDrawColor: {r: 0, g: 0, b: 0, a: 1}
  - X: 141
    Y: 77
    layer: 0
    symbol: "\u2500"
    drawColor: {r: 0.13725491, g: 0.13725491, b: 0.13725491, a: 1}
    backgroundDrawColor: {r: 0, g: 0, b: 0, a: 1}
  - X: 142
    Y: 77
    layer: 0
    symbol: "\u2500"
    drawColor: {r: 0.13725491, g: 0.13725491, b: 0.13725491, a: 1}
    backgroundDrawColor: {r: 0, g: 0, b: 0, a: 1}
  - X: 143
    Y: 77
    layer: 0
    symbol: "\u2500"
    drawColor: {r: 0.13725491, g: 0.13725491, b: 0.13725491, a: 1}
    backgroundDrawColor: {r: 0, g: 0, b: 0, a: 1}
  - X: 144
    Y: 77
    layer: 0
    symbol: "\u2500"
    drawColor: {r: 0.13725491, g: 0.13725491, b: 0.13725491, a: 1}
    backgroundDrawColor: {r: 0, g: 0, b: 0, a: 1}
  - X: 145
    Y: 77
    layer: 0
    symbol: "\u2500"
    drawColor: {r: 0.13725491, g: 0.13725491, b: 0.13725491, a: 1}
    backgroundDrawColor: {r: 0, g: 0, b: 0, a: 1}
  - X: 146
    Y: 77
    layer: 0
    symbol: "\u2500"
    drawColor: {r: 0.13725491, g: 0.13725491, b: 0.13725491, a: 1}
    backgroundDrawColor: {r: 0, g: 0, b: 0, a: 1}
  - X: 147
    Y: 77
    layer: 0
    symbol: "\u2518"
    drawColor: {r: 0.13725491, g: 0.13725491, b: 0.13725491, a: 1}
    backgroundDrawColor: {r: 0, g: 0, b: 0, a: 1}
  - X: 148
    Y: 77
    layer: 0
    symbol: "\u2551"
    drawColor: {r: 0.8509804, g: 0.6392157, b: 0, a: 1}
    backgroundDrawColor: {r: 0, g: 0, b: 0, a: 1}
  - X: 149
    Y: 77
    layer: 0
    symbol: "\u2551"
    drawColor: {r: 0.4, g: 0.3019608, b: 0, a: 1}
    backgroundDrawColor: {r: 0, g: 0, b: 0, a: 1}
  - X: 130
    Y: 78
    layer: 0
    symbol: "\u2551"
    drawColor: {r: 0.4, g: 0.3019608, b: 0, a: 1}
    backgroundDrawColor: {r: 0, g: 0, b: 0, a: 1}
  - X: 131
    Y: 78
    layer: 0
    symbol: "\u255A"
    drawColor: {r: 0.8509804, g: 0.6392157, b: 0, a: 1}
    backgroundDrawColor: {r: 0, g: 0, b: 0, a: 1}
  - X: 132
    Y: 78
    layer: 0
    symbol: "\u2550"
    drawColor: {r: 0.8509804, g: 0.6392157, b: 0, a: 1}
    backgroundDrawColor: {r: 0, g: 0, b: 0, a: 1}
  - X: 133
    Y: 78
    layer: 0
    symbol: "\u2550"
    drawColor: {r: 0.8509804, g: 0.6392157, b: 0, a: 1}
    backgroundDrawColor: {r: 0, g: 0, b: 0, a: 1}
  - X: 134
    Y: 78
    layer: 0
    symbol: "\u2550"
    drawColor: {r: 0.8509804, g: 0.6392157, b: 0, a: 1}
    backgroundDrawColor: {r: 0, g: 0, b: 0, a: 1}
  - X: 135
    Y: 78
    layer: 0
    symbol: "\u2550"
    drawColor: {r: 0.8509804, g: 0.6392157, b: 0, a: 1}
    backgroundDrawColor: {r: 0, g: 0, b: 0, a: 1}
  - X: 136
    Y: 78
    layer: 0
    symbol: "\u2550"
    drawColor: {r: 0.8509804, g: 0.6392157, b: 0, a: 1}
    backgroundDrawColor: {r: 0, g: 0, b: 0, a: 1}
  - X: 137
    Y: 78
    layer: 0
    symbol: "\u2550"
    drawColor: {r: 0.8509804, g: 0.6392157, b: 0, a: 1}
    backgroundDrawColor: {r: 0, g: 0, b: 0, a: 1}
  - X: 138
    Y: 78
    layer: 0
    symbol: "\u2550"
    drawColor: {r: 0.8509804, g: 0.6392157, b: 0, a: 1}
    backgroundDrawColor: {r: 0, g: 0, b: 0, a: 1}
  - X: 139
    Y: 78
    layer: 0
    symbol: "\u2550"
    drawColor: {r: 0.8509804, g: 0.6392157, b: 0, a: 1}
    backgroundDrawColor: {r: 0, g: 0, b: 0, a: 1}
  - X: 140
    Y: 78
    layer: 0
    symbol: "\u2550"
    drawColor: {r: 0.8509804, g: 0.6392157, b: 0, a: 1}
    backgroundDrawColor: {r: 0, g: 0, b: 0, a: 1}
  - X: 141
    Y: 78
    layer: 0
    symbol: "\u2550"
    drawColor: {r: 0.8509804, g: 0.6392157, b: 0, a: 1}
    backgroundDrawColor: {r: 0, g: 0, b: 0, a: 1}
  - X: 142
    Y: 78
    layer: 0
    symbol: "\u2550"
    drawColor: {r: 0.8509804, g: 0.6392157, b: 0, a: 1}
    backgroundDrawColor: {r: 0, g: 0, b: 0, a: 1}
  - X: 143
    Y: 78
    layer: 0
    symbol: "\u2550"
    drawColor: {r: 0.8509804, g: 0.6392157, b: 0, a: 1}
    backgroundDrawColor: {r: 0, g: 0, b: 0, a: 1}
  - X: 144
    Y: 78
    layer: 0
    symbol: "\u2550"
    drawColor: {r: 0.8509804, g: 0.6392157, b: 0, a: 1}
    backgroundDrawColor: {r: 0, g: 0, b: 0, a: 1}
  - X: 145
    Y: 78
    layer: 0
    symbol: "\u2550"
    drawColor: {r: 0.8509804, g: 0.6392157, b: 0, a: 1}
    backgroundDrawColor: {r: 0, g: 0, b: 0, a: 1}
  - X: 146
    Y: 78
    layer: 0
    symbol: "\u2550"
    drawColor: {r: 0.8509804, g: 0.6392157, b: 0, a: 1}
    backgroundDrawColor: {r: 0, g: 0, b: 0, a: 1}
  - X: 147
    Y: 78
    layer: 0
    symbol: "\u2550"
    drawColor: {r: 0.8509804, g: 0.6392157, b: 0, a: 1}
    backgroundDrawColor: {r: 0, g: 0, b: 0, a: 1}
  - X: 148
    Y: 78
    layer: 0
    symbol: "\u255D"
    drawColor: {r: 0.8509804, g: 0.6392157, b: 0, a: 1}
    backgroundDrawColor: {r: 0, g: 0, b: 0, a: 1}
  - X: 149
    Y: 78
    layer: 0
    symbol: "\u2551"
    drawColor: {r: 0.4, g: 0.3019608, b: 0, a: 1}
    backgroundDrawColor: {r: 0, g: 0, b: 0, a: 1}
  - X: 130
    Y: 79
    layer: 0
    symbol: "\u255A"
    drawColor: {r: 0.4, g: 0.3019608, b: 0, a: 1}
    backgroundDrawColor: {r: 0, g: 0, b: 0, a: 1}
  - X: 131
    Y: 79
    layer: 0
    symbol: "\u2550"
    drawColor: {r: 0.4, g: 0.3019608, b: 0, a: 1}
    backgroundDrawColor: {r: 0, g: 0, b: 0, a: 1}
  - X: 132
    Y: 79
    layer: 0
    symbol: "\u2550"
    drawColor: {r: 0.4, g: 0.3019608, b: 0, a: 1}
    backgroundDrawColor: {r: 0, g: 0, b: 0, a: 1}
  - X: 133
    Y: 79
    layer: 0
    symbol: "\u2550"
    drawColor: {r: 0.4, g: 0.3019608, b: 0, a: 1}
    backgroundDrawColor: {r: 0, g: 0, b: 0, a: 1}
  - X: 134
    Y: 79
    layer: 0
    symbol: "\u2550"
    drawColor: {r: 0.4, g: 0.3019608, b: 0, a: 1}
    backgroundDrawColor: {r: 0, g: 0, b: 0, a: 1}
  - X: 135
    Y: 79
    layer: 0
    symbol: "\u2550"
    drawColor: {r: 0.4, g: 0.3019608, b: 0, a: 1}
    backgroundDrawColor: {r: 0, g: 0, b: 0, a: 1}
  - X: 136
    Y: 79
    layer: 0
    symbol: "\u2550"
    drawColor: {r: 0.4, g: 0.3019608, b: 0, a: 1}
    backgroundDrawColor: {r: 0, g: 0, b: 0, a: 1}
  - X: 137
    Y: 79
    layer: 0
    symbol: "\u2550"
    drawColor: {r: 0.4, g: 0.3019608, b: 0, a: 1}
    backgroundDrawColor: {r: 0, g: 0, b: 0, a: 1}
  - X: 138
    Y: 79
    layer: 0
    symbol: "\u2550"
    drawColor: {r: 0.4, g: 0.3019608, b: 0, a: 1}
    backgroundDrawColor: {r: 0, g: 0, b: 0, a: 1}
  - X: 139
    Y: 79
    layer: 0
    symbol: "\u2550"
    drawColor: {r: 0.4, g: 0.3019608, b: 0, a: 1}
    backgroundDrawColor: {r: 0, g: 0, b: 0, a: 1}
  - X: 140
    Y: 79
    layer: 0
    symbol: "\u2550"
    drawColor: {r: 0.4, g: 0.3019608, b: 0, a: 1}
    backgroundDrawColor: {r: 0, g: 0, b: 0, a: 1}
  - X: 141
    Y: 79
    layer: 0
    symbol: "\u2550"
    drawColor: {r: 0.4, g: 0.3019608, b: 0, a: 1}
    backgroundDrawColor: {r: 0, g: 0, b: 0, a: 1}
  - X: 142
    Y: 79
    layer: 0
    symbol: "\u2550"
    drawColor: {r: 0.4, g: 0.3019608, b: 0, a: 1}
    backgroundDrawColor: {r: 0, g: 0, b: 0, a: 1}
  - X: 143
    Y: 79
    layer: 0
    symbol: "\u2550"
    drawColor: {r: 0.4, g: 0.3019608, b: 0, a: 1}
    backgroundDrawColor: {r: 0, g: 0, b: 0, a: 1}
  - X: 144
    Y: 79
    layer: 0
    symbol: "\u2550"
    drawColor: {r: 0.4, g: 0.3019608, b: 0, a: 1}
    backgroundDrawColor: {r: 0, g: 0, b: 0, a: 1}
  - X: 145
    Y: 79
    layer: 0
    symbol: "\u2550"
    drawColor: {r: 0.4, g: 0.3019608, b: 0, a: 1}
    backgroundDrawColor: {r: 0, g: 0, b: 0, a: 1}
  - X: 146
    Y: 79
    layer: 0
    symbol: "\u2550"
    drawColor: {r: 0.4, g: 0.3019608, b: 0, a: 1}
    backgroundDrawColor: {r: 0, g: 0, b: 0, a: 1}
  - X: 147
    Y: 79
    layer: 0
    symbol: "\u2550"
    drawColor: {r: 0.4, g: 0.3019608, b: 0, a: 1}
    backgroundDrawColor: {r: 0, g: 0, b: 0, a: 1}
  - X: 148
    Y: 79
    layer: 0
    symbol: "\u2550"
    drawColor: {r: 0.4, g: 0.3019608, b: 0, a: 1}
    backgroundDrawColor: {r: 0, g: 0, b: 0, a: 1}
  - X: 149
    Y: 79
    layer: 0
    symbol: "\u255D"
    drawColor: {r: 0.4, g: 0.3019608, b: 0, a: 1}
    backgroundDrawColor: {r: 0, g: 0, b: 0, a: 1}
